{
  "resourceType": "Observation",
  "id": "105",
  "status": "final",
  "category": [
    {
      "coding": [
        {
          "system": "http://terminology.hl7.org/CodeSystem/observation-category",
          "code": "activity",
          "display": "Activity"
        }
      ]
    }
  ],
  "code": {
    "coding": [
      {
        "system": "http://loinc.org",
        "code": "41951-5",
        "display": "Number of steps in 24 hour mean Measured"
      }
    ]
  },
  "subject": {
				"reference": "Patient/12",
				"identifier": {
								"pna-id": {
											"system": "http://fhir.health.org.il/identifier/pna-national-id",
											"value": "12233344-5"
										}
							},
				"type": "Patient",
				"display": "Ismail Ismail"
			},
  "effectivePeriod": {
                        "start": "2021-09-01T03:00:00.000+03:00",
                        "end": "2021-09-02T02:59:59.000+03:00"
                }
  "performer": [
				{
				  "reference": "Patient/12",
				  "identifier": {
									"pna-id": {
												"system": "http://fhir.health.org.il/identifier/pna-national-id",
												"value": "12233344-5"
											}
								},
				  "type": "Patient",
				  "display": "Ismail Ismail"
				}
			],
  "valueQuantity": {
                     "value": 2000,
                     "unit": "per 24 hour",
                     "system": "http://unitsofmeasure.org",
                     "code": "/(24.h)"
                },
  "note": {
            "text": "Measured in 24 hour window"
        },
  "device": {
                "display": "Garmin Watch"
            }
}